\headcommand {\slideentry {0}{0}{1}{1/1}{}{0}}
\headcommand {\beamer@framepages {1}{1}}
\headcommand {\sectionentry {1}{Inhalt}{2}{Inhalt}{0}}
\headcommand {\beamer@sectionpages {1}{1}}
\headcommand {\beamer@subsectionpages {1}{1}}
\headcommand {\beamer@subsectionentry {0}{1}{1}{2}{}}\headcommand {\beamer@subsectionpages {2}{1}}
\headcommand {\slideentry {1}{1}{1}{2/2}{}{0}}
\headcommand {\beamer@framepages {2}{2}}
\headcommand {\sectionentry {2}{Einleitung}{3}{Einleitung}{0}}
\headcommand {\beamer@sectionpages {2}{2}}
\headcommand {\beamer@subsectionpages {2}{2}}
\headcommand {\beamer@subsectionentry {0}{2}{1}{3}{}}\headcommand {\beamer@subsectionpages {3}{2}}
\headcommand {\slideentry {2}{1}{1}{3/3}{}{0}}
\headcommand {\beamer@framepages {3}{3}}
\headcommand {\slideentry {2}{1}{2}{4/6}{}{0}}
\headcommand {\beamer@framepages {4}{6}}
\headcommand {\sectionentry {3}{Minetest}{7}{Minetest}{0}}
\headcommand {\beamer@sectionpages {3}{6}}
\headcommand {\beamer@subsectionpages {3}{6}}
\headcommand {\beamer@subsectionentry {0}{3}{1}{7}{}}\headcommand {\beamer@subsectionpages {7}{6}}
\headcommand {\slideentry {3}{1}{1}{7/8}{}{0}}
\headcommand {\beamer@framepages {7}{8}}
\headcommand {\slideentry {3}{1}{2}{9/11}{}{0}}
\headcommand {\beamer@framepages {9}{11}}
\headcommand {\slideentry {3}{1}{3}{12/12}{}{0}}
\headcommand {\beamer@framepages {12}{12}}
\headcommand {\slideentry {3}{1}{4}{13/14}{}{0}}
\headcommand {\beamer@framepages {13}{14}}
\headcommand {\sectionentry {4}{Mods \& Texture Packs}{15}{Mods \& Texture Packs}{0}}
\headcommand {\beamer@sectionpages {7}{14}}
\headcommand {\beamer@subsectionpages {7}{14}}
\headcommand {\beamer@subsectionentry {0}{4}{1}{15}{}}\headcommand {\beamer@subsectionpages {15}{14}}
\headcommand {\slideentry {4}{1}{1}{15/16}{}{0}}
\headcommand {\beamer@framepages {15}{16}}
\headcommand {\slideentry {4}{1}{2}{17/19}{}{0}}
\headcommand {\beamer@framepages {17}{19}}
\headcommand {\slideentry {4}{1}{3}{20/23}{}{0}}
\headcommand {\beamer@framepages {20}{23}}
\headcommand {\sectionentry {5}{Projektideen}{24}{Projektideen}{0}}
\headcommand {\beamer@sectionpages {15}{23}}
\headcommand {\beamer@subsectionpages {15}{23}}
\headcommand {\beamer@subsectionentry {0}{5}{1}{24}{}}\headcommand {\beamer@subsectionpages {24}{23}}
\headcommand {\slideentry {5}{1}{1}{24/27}{}{0}}
\headcommand {\beamer@framepages {24}{27}}
\headcommand {\slideentry {5}{1}{2}{28/30}{}{0}}
\headcommand {\beamer@framepages {28}{30}}
\headcommand {\sectionentry {6}{Ende}{31}{Ende}{0}}
\headcommand {\beamer@sectionpages {24}{30}}
\headcommand {\beamer@subsectionpages {24}{30}}
\headcommand {\beamer@subsectionentry {0}{6}{1}{31}{}}\headcommand {\beamer@subsectionpages {31}{30}}
\headcommand {\slideentry {6}{1}{1}{31/31}{}{0}}
\headcommand {\beamer@framepages {31}{31}}
\headcommand {\beamer@partpages {1}{31}}
\headcommand {\beamer@subsectionpages {31}{31}}
\headcommand {\beamer@sectionpages {31}{31}}
\headcommand {\beamer@documentpages {31}}
\headcommand {\def \inserttotalframenumber {14}}
